{
  "result_ok" : true,
  "page" : 1,
  "results_per_page" : 4,
  "total_count" : 400,
  "total_pages" : 100,

  "data" : [
    { "_subtype" : "instructions",
      "_type" : "SurveyDecorative",
      "description" : [  ],
      "has_showhide_deps" : null,
      "id" : 3,
      "options" : [  ],
      "properties" : { "break_after" : false,
          "custom_css" : "",
          "disabled" : false,
          "hidden" : false,
          "hide_after_response" : false,
          "labels_right" : false,
          "map_key" : "instructions",
          "messages" : { "inputmask" : [  ],
              "l_extreme_label" : [  ],
              "left_label" : [  ],
              "r_extreme_label" : [  ],
              "right_label" : [  ]
            },
          "question_description_above" : false,
          "required" : false,
          "show_title" : false,
          "soft-required" : false
        },
      "shortname" : null,
      "sub_question_skus" : null,
      "title" : { "English" : "SurveyInstructions" },
      "varname" : null
    },
    { "_subtype" : "table",
      "_type" : "SurveyQuestion",
      "description" : [  ],
      "has_showhide_deps" : false,
      "id" : 106,
      "options" : [ { "_type" : "SurveyOption",
            "id" : 10031,
            "properties" : [  ],
            "title" : { "English" : "1" },
            "value" : "1"
          },
          { "_type" : "SurveyOption",
            "id" : 10032,
            "properties" : [  ],
            "title" : { "English" : "2" },
            "value" : "2"
          },
          { "_type" : "SurveyOption",
            "id" : 10033,
            "properties" : [  ],
            "title" : { "English" : "3" },
            "value" : "3"
          }
        ],
      "properties" : { "break_after" : false,
          "custom_css" : "",
          "disabled" : false,
          "exclude_number" : "YES",
          "hidden" : false,
          "hide_after_response" : false,
          "labels_right" : false,
          "map_key" : "table-radio",
          "messages" : { "inputmask" : [  ],
              "l_extreme_label" : [  ],
              "left_label" : [  ],
              "r_extreme_label" : [  ],
              "right_label" : [  ]
            },
          "question_description" : { "English" : "" },
          "question_description_above" : false,
          "required" : true,
          "show_title" : false,
          "soft-required" : false
        },
      "shortname" : "",
      "sub_question_skus" : [ 107,
          108,
          109,
          110,
          111
        ],
      "title" : { "English" : " " },
      "varname" : ""
    },
    { "_subtype" : "radio",
      "_type" : "SurveyQuestion",
      "description" : [  ],
      "has_showhide_deps" : null,
      "id" : 107,
      "options" : [ { "_type" : "SurveyOption",
            "id" : 10031,
            "properties" : [  ],
            "title" : { "English" : "1" },
            "value" : "1"
          },
          { "_type" : "SurveyOption",
            "id" : 10032,
            "properties" : [  ],
            "title" : { "English" : "2" },
            "value" : "2"
          },
          { "_type" : "SurveyOption",
            "id" : 10033,
            "properties" : [  ],
            "title" : { "English" : "3" },
            "value" : "3"
          }
        ],
      "properties" : { "hidden" : false,
          "option_sort" : false,
          "orientation" : "VERT",
          "required" : true
        },
      "shortname" : null,
      "sub_question_skus" : null,
      "title" : { "English" : "Radio question #1" },
      "varname" : null
    },
    { "_subtype" : "radio",
      "_type" : "SurveyQuestion",
      "description" : [  ],
      "has_showhide_deps" : null,
      "id" : 108,
      "options" : [ { "_type" : "SurveyOption",
            "id" : 10031,
            "properties" : [  ],
            "title" : { "English" : "1" },
            "value" : "1"
          },
          { "_type" : "SurveyOption",
            "id" : 10032,
            "properties" : [  ],
            "title" : { "English" : "2" },
            "value" : "2"
          },
          { "_type" : "SurveyOption",
            "id" : 10033,
            "properties" : [  ],
            "title" : { "English" : "3" },
            "value" : "3"
          }
        ],
      "properties" : { "hidden" : false,
          "option_sort" : false,
          "orientation" : "VERT",
          "required" : true
        },
      "shortname" : null,
      "sub_question_skus" : null,
      "title" : { "English" : "Radio option #2" },
      "varname" : null
    },
    { "_subtype" : "radio",
      "_type" : "SurveyQuestion",
      "description" : [  ],
      "has_showhide_deps" : null,
      "id" : 109,
      "options" : [ { "_type" : "SurveyOption",
            "id" : 10031,
            "properties" : [  ],
            "title" : { "English" : "1" },
            "value" : "1"
          },
          { "_type" : "SurveyOption",
            "id" : 10032,
            "properties" : [  ],
            "title" : { "English" : "2" },
            "value" : "2"
          },
          { "_type" : "SurveyOption",
            "id" : 10033,
            "properties" : [  ],
            "title" : { "English" : "3" },
            "value" : "3"
          }
        ],
      "properties" : { "hidden" : false,
          "option_sort" : false,
          "orientation" : "VERT",
          "required" : true
        },
      "shortname" : null,
      "sub_question_skus" : null,
      "title" : { "English" : "Radio option #3" },
      "varname" : null
    }
  ]
}
